/* XPM */
static char * close_active_xpm[] = {
"18 22 49 1",
" 	c None",
".	c #C0C0C0",
"+	c #F2F2F2",
"@	c #EFEFEF",
"#	c #EAEAEA",
"$	c #E7E7E7",
"%	c #D8D8D8",
"&	c #A4A4A4",
"*	c #787878",
"=	c #626262",
"-	c #606060",
";	c #757575",
">	c #A0A0A0",
",	c #D1D1D1",
"'	c #F1F1F1",
")	c #BCBCBC",
"!	c #696969",
"~	c #5A5A5A",
"{	c #676767",
"]	c #AFAFAF",
"^	c #C7C7C7",
"/	c #5C5C5C",
"(	c #BEBEBE",
"_	c #EDEDED",
":	c #6C6C6C",
"<	c #B4B4B4",
"[	c #929292",
"}	c #8D8D8D",
"|	c #878787",
"1	c #858585",
"2	c #A7A7A7",
"3	c #5B5B5B",
"4	c #ACACAC",
"5	c #DDDDDD",
"6	c #5F5F5F",
"7	c #DEDEDE",
"8	c #A5A5A5",
"9	c #F0F0F0",
"0	c #939393",
"a	c #8A8A8A",
"b	c #B2B2B2",
"c	c #797979",
"d	c #767676",
"e	c #A6A6A6",
"f	c #E4E4E4",
"g	c #CCCCCC",
"h	c #BFBFBF",
"i	c #CACACA",
"j	c #E1E1E1",
"..................",
"++++++++++++++++++",
"++++++++++++++++++",
"++++++++++++++++++",
"++++++@#$$#@++++++",
"+++++%&*=-;>,+++++",
"++'+)!~~~~~~{]++++",
"+++^~~~~~~~~~/(+++",
"++_{~~~~~~~~~~:$++",
"++</~~~~~~~~~~~(++",
"++[~~~~~~~~~~~~}++",
"++|~~~~~~~~~~~~*++",
"++}~~~~~~~~~~~~1++",
"++23~~~~~~~~~~~4++",
"++56~~~~~~~~~~/7++",
"+++2~~~~~~~~~~89++",
"++++0~~~~~~~3a#+++",
"+++++bc=~~-de9++++",
"++++++fg.hij++++++",
"++++++++++++++++++",
"++++++++++++++++++",
"++++++++++++++++++"};
