/* XPM */
static char * title_5_active_xpm[] = {
"2 22 4 1",
" 	c None",
".	c #BDBDBD",
"+	c #A6A6A6",
"@	c #F2F2F2",
".+",
"@@",
"@@",
"@@",
"@@",
"@@",
"@@",
"@@",
"@@",
"@@",
"@@",
"@@",
"@@",
"@@",
"@@",
"@@",
"@@",
"@@",
"@@",
"@@",
"@@",
"@@"};
