/* XPM */
static char * title_3_inactive_xpm[] = {
"2 22 3 1",
" 	c None",
".	c #BDBDBD",
"+	c #F2F2F2",
"..",
"++",
"++",
"++",
"++",
"++",
"++",
"++",
"++",
"++",
"++",
"++",
"++",
"++",
"++",
"++",
"++",
"++",
"++",
"++",
"++",
"++"};
