/* XPM */
static char * top_right_inactive_xpm[] = {
"2 22 4 1",
" 	c None",
".	c #BDBDBD",
"+	c #F2F2F2",
"@	c #B1B1B1",
"  ",
". ",
"+@",
"+.",
"+.",
"+.",
"+.",
"+.",
"+.",
"+.",
"+.",
"+.",
"+.",
"+.",
"+.",
"+.",
"+.",
"+.",
"+.",
"+.",
"+.",
"+."};
