/* XPM */
static char * top_left_inactive_xpm[] = {
"2 22 4 1",
" 	c None",
".	c #BDBDBD",
"+	c #B1B1B1",
"@	c #F2F2F2",
"  ",
" .",
"+@",
".@",
".@",
".@",
".@",
".@",
".@",
".@",
".@",
".@",
".@",
".@",
".@",
".@",
".@",
".@",
".@",
".@",
".@",
".@"};
