<?xml version="1.0" encoding="UTF-8" standalone="no"?>
<svg xmlns:dc="http://purl.org/dc/elements/1.1/"
     xmlns:cc="http://creativecommons.org/ns#"
     xmlns:rdf="http://www.w3.org/1999/02/22-rdf-syntax-ns#"
     xmlns:svg="http://www.w3.org/2000/svg"
     xmlns="http://www.w3.org/2000/svg"
     xmlns:xlink="http://www.w3.org/1999/xlink"
     width="128" height="128" version="1.1">
    <title>TEX File Icon</title>
    <desc>This icon is a part of Clarity icon theme for gtk</desc>
    <metadata>
        <rdf:RDF>
            <cc:Work rdf:about="">
                <dc:title>TEX File Icon</dc:title>
                <dc:description>This icon is a part of Clarity icon theme for gtk</dc:description>
                <dc:creator>
                    <cc:Agent>
                        <dc:title>Jakub Jankiewicz</dc:title>
                    </cc:Agent>
                </dc:creator>
                <dc:rights>
                    <cc:Agent>
                        <dc:title>Jakub Jankiewicz</dc:title>
                    </cc:Agent>
                </dc:rights>
                <dc:date>2010</dc:date>
                <dc:format>image/svg+xml</dc:format>
                <dc:type rdf:resource="http://purl.org/dc/dcmitype/StillImage" />
                <cc:license rdf:resource="http://www.gnu.org/copyleft/gpl.html" />
             </cc:Work>
        </rdf:RDF>
    </metadata>
    <defs>
        <linearGradient x1="0" y1="128" x2="128" y2="0" id="gradient" gradientUnits="userSpaceOnUse">
            <stop id="start" style="stop-color:#7E7E9C;stop-opacity:1" offset="0" />
            <stop id="stop" style="stop-color:#9090AC;stop-opacity:1" offset="1" />
        </linearGradient>
    </defs>
    <path d="m 29.09375,11.234375 c -3.183804,0 -5.71875,2.566196 -5.71875,5.75 l 0,94.031255 c 0,3.1838 2.534946,5.75 5.71875,5.75 l 69.8125,0 c 3.1838,0 5.71875,-2.5662 5.71875,-5.75 l 0,-70.656255 -21.03125,0 c -4.306108,0 -8.0625,-3.141109 -8.0625,-7.3125 l 0,-21.8125 -46.4375,0 z m 50.4375,0 0,21.8125 c 0,1.714122 1.631968,3.3125 4.0625,3.3125 l 21.03125,0 -25.09375,-25.125 z m -46.1875,51.3125 19.03125,0 0.25,5.46875 -0.625,0 c -0.126107,-0.962831 -0.313482,-1.64983 -0.53125,-2.0625 -0.355356,-0.664804 -0.841468,-1.159242 -1.4375,-1.46875 -0.584605,-0.320929 -1.349667,-0.499979 -2.3125,-0.5 l -3.28125,0 0,17.84375 c -1.2e-5,1.432815 0.15925,2.300914 0.46875,2.65625 0.435561,0.481426 1.094449,0.718751 2,0.71875 l 0.8125,0 0,0.625 -9.875,0 0,-0.625 0.8125,0 c 0.985768,10e-7 1.712342,-0.278949 2.125,-0.875 0.252166,-0.366798 0.343741,-1.193273 0.34375,-2.5 l 0,-17.84375 -2.8125,0 c -1.088943,2.1e-5 -1.854004,0.08955 -2.3125,0.25 -0.596054,0.217809 -1.107139,0.631046 -1.53125,1.25 -0.424114,0.618995 -0.66977,1.476719 -0.75,2.53125 l -0.65625,0 0.28125,-5.46875 z m 37.3125,0 10.78125,0 0,0.625 c -0.91701,0.03441 -1.562385,0.173884 -1.90625,0.4375 -0.332422,0.263659 -0.500009,0.554071 -0.5,0.875 -9e-6,0.424133 0.293541,1.061183 0.84375,1.875 l 3.5625,5.34375 4.15625,-5.25 c 0.481406,-0.618955 0.771818,-1.051979 0.875,-1.28125 0.11461,-0.229229 0.187481,-0.446767 0.1875,-0.6875 -1.9e-5,-0.240691 -0.112469,-0.472828 -0.25,-0.65625 -0.171956,-0.24069 -0.361381,-0.40828 -0.625,-0.5 -0.263655,-0.10314 -0.830966,-0.14476 -1.65625,-0.15625 l 0,-0.625 8.28125,0 0,0.625 c -0.653386,0.03441 -1.181122,0.140585 -1.59375,0.3125 -0.618997,0.263659 -1.171709,0.615484 -1.6875,1.0625 -0.515833,0.447058 -1.278845,1.265207 -2.21875,2.46875 l -4.625,5.90625 5.03125,7.46875 c 1.386942,2.063254 2.397654,3.387302 3.0625,3.9375 0.676265,0.538738 1.530851,0.81769 2.5625,0.875 l 0,0.625 -10,0 0,-0.625 c 0.66481,-0.01146 1.147784,-0.06141 1.46875,-0.1875 0.240697,-0.103161 0.44472,-0.262423 0.59375,-0.46875 0.16046,-0.217786 0.249982,-0.438461 0.25,-0.65625 -1.8e-5,-0.263636 -0.05311,-0.54886 -0.15625,-0.8125 -0.08025,-0.19486 -0.418566,-0.686159 -0.96875,-1.5 l -3.9375,-5.96875 -4.875,6.25 c -0.515819,0.664828 -0.834344,1.114502 -0.9375,1.34375 -0.10316,0.217789 -0.156256,0.44679 -0.15625,0.6875 -6e-6,0.366801 0.159256,0.665539 0.46875,0.90625 0.30948,0.240713 0.910092,0.37186 1.78125,0.40625 l 0,0.625 -8.28125,0 0,-0.625 c 0.584586,-0.05731 1.075886,-0.160349 1.5,-0.34375 0.710673,-0.298024 1.389347,-0.714398 2.03125,-1.21875 0.641896,-0.504347 1.393444,-1.26941 2.21875,-2.3125 l 5.5,-6.9375 -4.59375,-6.75 c -1.249419,-1.822518 -2.316354,-3.000816 -3.1875,-3.5625 -0.871152,-0.573103 -1.865215,-0.87184 -3,-0.90625 l 0,-0.625 z m -19.3125,7.34375 17.96875,0 0.25,5.09375 -0.6875,0 c -0.240731,-1.226469 -0.514493,-2.07273 -0.8125,-2.53125 -0.28658,-0.458478 -0.708141,-0.821767 -1.28125,-1.0625 -0.458515,-0.17192 -1.279802,-0.249978 -2.4375,-0.25 l -6.375,0 0,9.21875 5.125,0 c 1.329636,1.3e-5 2.209198,-0.192549 2.65625,-0.59375 0.596035,-0.52726 0.93121,-1.451586 1,-2.78125 l 0.625,0 0,8.125 -0.625,0 c -0.160491,-1.134778 -0.30829,-1.897791 -0.46875,-2.21875 -0.206341,-0.401177 -0.561302,-0.708239 -1.03125,-0.9375 -0.469976,-0.229239 -1.181951,-0.343739 -2.15625,-0.34375 l -5.125,0 0,7.6875 c -7e-6,1.031628 0.0333,1.677002 0.125,1.90625 0.09169,0.217789 0.239493,0.393702 0.46875,0.53125 0.229242,0.12609 0.701842,0.187501 1.34375,0.1875 l 3.9375,0 c 1.318173,10e-7 2.278935,-0.09785 2.875,-0.28125 0.596034,-0.183399 1.137283,-0.55501 1.6875,-1.09375 0.710657,-0.710672 1.473668,-1.754683 2.21875,-3.1875 l 0.6875,0 -2,5.8125 -17.96875,0 0,-0.625 0.8125,0 c 0.550198,0 1.069611,-0.111362 1.5625,-0.375 0.366797,-0.183395 0.592659,-0.476948 0.71875,-0.84375 0.13755,-0.366798 0.218745,-1.11521 0.21875,-2.25 l 0,-15.15625 c -5e-6,-1.478642 -0.139479,-2.374854 -0.4375,-2.71875 -0.412653,-0.458478 -1.099652,-0.687478 -2.0625,-0.6875 l -0.8125,0 0,-0.625 z" style="fill:url(#gradient);fill-opacity:1;stroke:none" />
    <path d="m 99.579205,78.3623 c -13.290324,1.76629 -14.950088,2.733434 -22.020044,6.254603 -1.760027,0.876575 -3.36932,2.960591 -3.239847,4.922557 l 1.38133,25.1402 c 0.364583,3.10215 0.343381,6.24264 4.470486,7.23315 l 15.612348,5.35135 c 3.938424,0.94522 7.108002,1.16227 10.623682,-0.45207 l 15.11928,-6.95688 c 2.09027,-1.25129 4.35635,-3.00515 4.92256,-5.37462 l 1.53202,-23.432379 c 0.21614,-3.285423 -1.42685,-5.057149 -4.24501,-6.781074 -6.64489,-4.064816 -13.63918,-5.822655 -24.156805,-5.904837 z m 19.398375,7.824598 c 0,0 -8.98692,3.977006 -13.17316,6.242643 -1.53341,0.829896 -3.39096,1.755294 -3.69192,3.717033 l -1.1973,23.526546 -1.138403,-24.154423 c -0.08216,-1.743166 -3.5729,-3.277423 -5.223938,-3.842609 -7.741186,-2.649972 -11.994715,-3.824349 -11.994715,-3.824349 9.326599,-4.89851 23.564806,-6.137699 36.419436,-1.664841 z" style="fill:#b3a91a;fill-opacity:1;stroke:none"  />
</svg>