<?xml version="1.0" encoding="UTF-8" standalone="no"?>
<svg xmlns:dc="http://purl.org/dc/elements/1.1/"
     xmlns:cc="http://creativecommons.org/ns#"
     xmlns:rdf="http://www.w3.org/1999/02/22-rdf-syntax-ns#"
     xmlns:svg="http://www.w3.org/2000/svg"
     xmlns="http://www.w3.org/2000/svg"
     xmlns:xlink="http://www.w3.org/1999/xlink"
     width="128" height="128" version="1.1">
    <title>.NET File Icon</title>
    <desc>This icon is a part of Clarity icon theme for gtk</desc>
    <metadata>
        <rdf:RDF>
            <cc:Work rdf:about="">
                <dc:title>.NET File Icon</dc:title>
                <dc:description>This icon is a part of Clarity icon theme for gtk</dc:description>
                <dc:creator>
                    <cc:Agent>
                        <dc:title>Jakub Jankiewicz</dc:title>
                    </cc:Agent>
                </dc:creator>
                <dc:rights>
                    <cc:Agent>
                        <dc:title>Jakub Jankiewicz</dc:title>
                    </cc:Agent>
                </dc:rights>
                <dc:date>2010</dc:date>
                <dc:format>image/svg+xml</dc:format>
                <dc:type rdf:resource="http://purl.org/dc/dcmitype/StillImage" />
                <cc:license rdf:resource="http://www.gnu.org/copyleft/gpl.html" />
             </cc:Work>
        </rdf:RDF>
    </metadata>
    <defs>
        <linearGradient x1="0" y1="128" x2="128" y2="0" id="gradient" gradientUnits="userSpaceOnUse">
            <stop id="start" style="stop-color:#7E7E9C;stop-opacity:1" offset="0" />
            <stop id="stop" style="stop-color:#9090AC;stop-opacity:1" offset="1" />
        </linearGradient>
    </defs>
    <path d="m 29.09375,11.234375 c -3.183804,0 -5.71875,2.566196 -5.71875,5.75 l 0,94.031255 c 0,3.1838 2.534946,5.75 5.71875,5.75 l 69.8125,0 c 3.1838,0 5.71875,-2.5662 5.71875,-5.75 l 0,-70.656255 -21.03125,0 c -4.306108,0 -8.0625,-3.141109 -8.0625,-7.3125 l 0,-21.8125 -46.4375,0 z m 50.4375,0 0,21.8125 c 0,1.714122 1.631968,3.3125 4.0625,3.3125 l 21.03125,0 -25.09375,-25.125 z m -35.0625,51.84375 5.84375,0 3.9375,12.09375 0,-12.09375 5.84375,0 0,26.875 -6.125,0 -3.65625,-12.21875 0,12.21875 -5.84375,0 0,-26.875 z m 18.40625,0 11.65625,0 0,5.375 -4.65625,0 0,5.09375 4.34375,0 0,5.09375 -4.34375,0 0,5.9375 5.125,0 0,5.375 -12.125,0 0,-26.875 z m 12.46875,0 15.28125,0 0,5.375 -4.15625,0 0,21.5 -6.96875,0 0,-21.5 -4.15625,0 0,-5.375 z m -37.96875,21.375 5.0625,0 0,5.5 -5.0625,0 0,-5.5 z" style="fill:url(#gradient);fill-opacity:1;stroke:none" />
</svg>