<?xml version="1.0" encoding="UTF-8" standalone="no"?>
<svg xmlns:dc="http://purl.org/dc/elements/1.1/"
     xmlns:cc="http://creativecommons.org/ns#"
     xmlns:rdf="http://www.w3.org/1999/02/22-rdf-syntax-ns#"
     xmlns:svg="http://www.w3.org/2000/svg"
     xmlns="http://www.w3.org/2000/svg"
     xmlns:xlink="http://www.w3.org/1999/xlink"
     width="128" height="128" version="1.1">
    <title>Clarity Icon</title>
    <desc>This icon is a part of Clarity icon theme for gtk</desc>
    <metadata>
        <rdf:RDF>
            <cc:Work rdf:about="">
                <dc:title>Clarity Icon</dc:title>
                <dc:description>This icon is a part of Clarity icon theme for gtk</dc:description>
                <dc:creator>
                    <cc:Agent>
                        <dc:title>Jakub Jankiewicz</dc:title>
                    </cc:Agent>
                </dc:creator>
                <dc:rights>
                    <cc:Agent>
                        <dc:title>Jakub Jankiewicz</dc:title>
                    </cc:Agent>
                </dc:rights>
                <dc:date>2010</dc:date>
                <dc:format>image/svg+xml</dc:format>
                <dc:type rdf:resource="http://purl.org/dc/dcmitype/StillImage" />
                <cc:license rdf:resource="http://www.gnu.org/copyleft/gpl.html" />
             </cc:Work>
        </rdf:RDF>
    </metadata>
    <defs>
        <linearGradient x1="0" y1="128" x2="128" y2="0" id="gradient" gradientUnits="userSpaceOnUse">
            <stop id="start" style="stop-color:#7E7E9C;stop-opacity:1" offset="0" />
            <stop id="stop" style="stop-color:#9090AC;stop-opacity:1" offset="1" />
        </linearGradient>
    </defs>
    <path d="m 38.857799,13.084687 0,30.931138 c 0,1.695274 1.305754,3.001038 3.001035,3.001038 l 44.282336,0 c 1.695281,0 3.001035,-1.305764 3.001035,-3.001038 l 0,-30.931138 -50.284406,0 z M 27.893786,42.395948 c -2.222349,0 -4.007077,1.603422 -4.007077,3.597833 l 0,11.833634 -5.149509,0 c -4.273733,0 -7.707201,3.433467 -7.707201,7.707208 l 0,27.776638 c 0,4.273741 3.433468,7.707209 7.707201,7.707209 l 16.23289,0 0,-7.945919 c 0,-4.560078 3.726884,-8.286961 8.286948,-8.286961 l 41.485928,0 c 4.560065,0 8.286948,3.726882 8.286948,8.286961 l 0,7.945919 16.232886,0 c 4.27374,0 7.7072,-3.433468 7.7072,-7.707209 l 0,-27.776638 c 0,-4.273741 -3.43346,-7.707208 -7.7072,-7.707208 l -5.1495,0 0,-11.833634 c 0,-1.99441 -1.78473,-3.597833 -4.00708,-3.597833 l -7.417329,0 0,1.619877 c 0,3.60034 -2.947383,6.564769 -6.547721,6.564769 l -44.282336,0 c -3.600338,0 -6.54772,-2.964429 -6.54772,-6.564769 l 0,-1.619877 -7.417328,0 z m -9.412351,22.115594 3.597842,0 c 0.997206,0 1.807432,0.793184 1.807432,1.790391 l 0,3.614885 c 0,0.997206 -0.810226,1.790391 -1.807432,1.790391 l -3.597842,0 c -0.997206,0 -1.79039,-0.793185 -1.79039,-1.790391 l 0,-3.614885 c 0,-0.997207 0.793184,-1.790391 1.79039,-1.790391 z m 24.775603,24.093551 c -2.510129,0 -4.467443,1.957314 -4.467443,4.467456 l 0,21.842771 50.420815,0 0,-21.842771 c 0,-2.510142 -1.957314,-4.467456 -4.467444,-4.467456 l -41.485928,0 z" style="fill:url(#gradient);fill-opacity:1;stroke:none" />
    <path d="m 100.60965,80.02071 c -0.750272,0.01636 -1.495262,0.520945 -2.044872,1.47351 l -24.76399,42.92726 C 72.685578,126.35431 73.684418,128 75.875728,128 l 49.573102,0 c 2.51288,0 3.10451,-1.7703 2.0599,-3.57852 L 102.71467,81.49422 c -0.5881,-1.018006 -1.35474,-1.48987 -2.10502,-1.47351 z m -0.27064,10.344642 c 1.26946,3.1e-5 2.27083,0.393221 2.99213,1.157758 0.73571,0.764597 1.0976,1.783438 1.09761,3.067306 -10e-6,1.759974 -0.32939,4.157726 -1.0074,7.187124 -0.76458,3.49106 -1.20837,5.87316 -1.33819,7.15705 -0.0289,0.80785 -0.0608,1.62857 -0.0752,2.45083 -0.0866,1.09637 -0.36657,1.77018 -0.85704,2.02984 -0.18754,0.11541 -0.41756,0.18044 -0.69165,0.18043 -0.663592,10e-6 -1.073032,-0.52506 -1.202862,-1.56373 -0.0144,-0.10097 -0.0151,-0.87231 -0.015,-2.30048 -1e-5,-2.62548 -0.55881,-6.38771 -1.68401,-11.30693 -0.43278,-1.918606 -0.64655,-3.183116 -0.64655,-3.789026 0,-1.096333 0.28001,-2.064577 0.85705,-2.886877 0.64915,-0.92322 1.50361,-1.383264 2.571122,-1.383295 z m 0.0301,25.500748 c 0.89439,0 1.66635,0.26315 2.31551,0.79689 0.69244,0.57704 1.03747,1.30023 1.03748,2.1802 -1e-5,0.96653 -0.31192,1.77039 -0.93222,2.39069 -0.6059,0.62031 -1.39411,0.91719 -2.36063,0.91719 -0.807852,0 -1.514172,-0.29627 -2.120052,-0.90215 -0.60589,-0.60588 -0.90215,-1.3122 -0.90215,-2.12005 0,-0.86555 0.2794,-1.62124 0.84201,-2.27041 0.5626,-0.66358 1.26892,-0.99236 2.120052,-0.99236 z" style="fill:#bf0000;fill-opacity:1;stroke:none"  />
</svg>