<?xml version="1.0" encoding="UTF-8" standalone="no"?>
<svg xmlns:dc="http://purl.org/dc/elements/1.1/"
     xmlns:cc="http://creativecommons.org/ns#"
     xmlns:rdf="http://www.w3.org/1999/02/22-rdf-syntax-ns#"
     xmlns:svg="http://www.w3.org/2000/svg"
     xmlns="http://www.w3.org/2000/svg"
     xmlns:xlink="http://www.w3.org/1999/xlink"
     width="128" height="128" version="1.1">
    <title>Clarity Icon</title>
    <desc>This icon is a part of Clarity icon theme for gtk</desc>
    <metadata>
        <rdf:RDF>
            <cc:Work rdf:about="">
                <dc:title>Clarity Icon</dc:title>
                <dc:description>This icon is a part of Clarity icon theme for gtk</dc:description>
                <dc:creator>
                    <cc:Agent>
                        <dc:title>Jakub Jankiewicz</dc:title>
                    </cc:Agent>
                </dc:creator>
                <dc:rights>
                    <cc:Agent>
                        <dc:title>Jakub Jankiewicz</dc:title>
                    </cc:Agent>
                </dc:rights>
                <dc:date>2010</dc:date>
                <dc:format>image/svg+xml</dc:format>
                <dc:type rdf:resource="http://purl.org/dc/dcmitype/StillImage" />
                <cc:license rdf:resource="http://www.gnu.org/copyleft/gpl.html" />
             </cc:Work>
        </rdf:RDF>
    </metadata>
    <defs>
        <linearGradient x1="0" y1="128" x2="128" y2="0" id="gradient" gradientUnits="userSpaceOnUse">
            <stop id="start" style="stop-color:#7E7E9C;stop-opacity:1" offset="0" />
            <stop id="stop" style="stop-color:#9090AC;stop-opacity:1" offset="1" />
        </linearGradient>
    </defs>
    <path d="m 56.859375,13.953125 c -1.16346,0 -2.32724,0.452246 -3.21875,1.34375 l -20.9375,20.90625 48.28125,0 -6.96875,-6.96875 2.375,-2.34375 c 0.46974,-0.469738 1.06598,-0.71875 1.65625,-0.71875 0.59027,0 1.18651,0.249012 1.65625,0.71875 l 9.28125,9.3125 6.3125,0 -12.46875,-12.4375 c -2.62653,-2.626542 -6.96721,-2.626542 -9.59375,0 l -2.3125,2.375 -10.84375,-10.84375 c -0.89151,-0.891504 -2.05529,-1.34375 -3.21875,-1.34375 z m -24.15625,24.53125 0,67.000005 c 0,4.73631 3.82618,8.5625 8.5625,8.5625 l 45.5,0 c 4.73632,0 8.53125,-3.82619 8.53125,-8.5625 l 0,-67.000005 -62.59375,0 z m 13.46875,9.5625 c 1.5399,0 2.78125,1.241348 2.78125,2.78125 l 0,50.875005 c 0,1.5399 -1.24135,2.78125 -2.78125,2.78125 -1.5399,0 -2.78125,-1.24135 -2.78125,-2.78125 l 0,-50.875005 c 0,-1.539902 1.24135,-2.78125 2.78125,-2.78125 z m 17.8125,0 c 1.5399,0 2.78125,1.241348 2.78125,2.78125 l 0,50.875005 c 0,1.5399 -1.24135,2.78125 -2.78125,2.78125 -1.5399,0 -2.78125,-1.24135 -2.78125,-2.78125 l 0,-50.875005 c 0,-1.539902 1.24135,-2.78125 2.78125,-2.78125 z m 17.8125,0 c 1.5399,0 2.78125,1.241348 2.78125,2.78125 l 0,50.875005 c 0,1.5399 -1.24135,2.78125 -2.78125,2.78125 -1.5399,0 -2.78125,-1.24135 -2.78125,-2.78125 l 0,-50.875005 c 0,-1.539902 1.24135,-2.78125 2.78125,-2.78125 z" style="fill:url(#gradient);fill-opacity:1;stroke:none" />
</svg>