<?xml version="1.0" encoding="UTF-8" standalone="no"?>
<svg
   xmlns:dc="http://purl.org/dc/elements/1.1/"
   xmlns:cc="http://creativecommons.org/ns#"
   xmlns:rdf="http://www.w3.org/1999/02/22-rdf-syntax-ns#"
   xmlns:svg="http://www.w3.org/2000/svg"
   xmlns="http://www.w3.org/2000/svg"
   xmlns:sodipodi="http://sodipodi.sourceforge.net/DTD/sodipodi-0.dtd"
   xmlns:inkscape="http://www.inkscape.org/namespaces/inkscape"
   viewBox="0 0 16 16"
   id="svg2"
   version="1.1"
   inkscape:version="0.91 r"
   sodipodi:docname="radio-unselected.svg">
  <metadata
     id="metadata14">
    <rdf:RDF>
      <cc:Work
         rdf:about="">
        <dc:format>image/svg+xml</dc:format>
        <dc:type
           rdf:resource="http://purl.org/dc/dcmitype/StillImage" />
      </cc:Work>
    </rdf:RDF>
  </metadata>
  <defs
     id="defs12" />
  <sodipodi:namedview
     pagecolor="#ffffff"
     bordercolor="#666666"
     borderopacity="1"
     objecttolerance="10"
     gridtolerance="10"
     guidetolerance="10"
     inkscape:pageopacity="0"
     inkscape:pageshadow="2"
     inkscape:window-width="1535"
     inkscape:window-height="876"
     id="namedview10"
     showgrid="false"
     inkscape:zoom="27.52"
     inkscape:cx="2.1581223"
     inkscape:cy="7.9273256"
     inkscape:window-x="65"
     inkscape:window-y="24"
     inkscape:window-maximized="1"
     inkscape:current-layer="svg2" />
  <g
     id="g4144"
     transform="matrix(1.1428572,0,0,1.1428572,-1.1428577,-1.1428575)">
    <path
       sodipodi:nodetypes="sssss"
       style="fill:#aaaaaa"
       d="m 8.0000001,0.99999985 c -3.8659932,0 -7,3.13400665 -7,6.99999995 0,3.8659932 3.1340068,7.0000002 7,7.0000002 C 11.865993,15 15,11.865993 15,7.9999998 15,4.1340066 11.865993,0.99999985 8.0000001,0.99999985 Z"
       id="path8"
       inkscape:connector-curvature="0" />
    <path
       style="fill:#f9f9f9"
       d="M 14,8.0000001 C 14,11.313708 11.313708,14 8,14 4.686291,14 2,11.313708 2,8.0000001 2,4.6862913 4.686291,1.9999998 8,1.9999998 c 3.313708,0 6,2.6862915 6,6.0000003 z"
       id="path6"
       inkscape:connector-curvature="0" />
  </g>
</svg>
