<?xml version="1.0" encoding="UTF-8" standalone="no"?>
<svg
   xmlns:dc="http://purl.org/dc/elements/1.1/"
   xmlns:cc="http://creativecommons.org/ns#"
   xmlns:rdf="http://www.w3.org/1999/02/22-rdf-syntax-ns#"
   xmlns:svg="http://www.w3.org/2000/svg"
   xmlns="http://www.w3.org/2000/svg"
   xmlns:sodipodi="http://sodipodi.sourceforge.net/DTD/sodipodi-0.dtd"
   xmlns:inkscape="http://www.inkscape.org/namespaces/inkscape"
   height="22"
   width="22"
   version="1"
   id="svg2"
   inkscape:version="0.91 r13725"
   sodipodi:docname="system-log-out.svg">
  <metadata
     id="metadata18">
    <rdf:RDF>
      <cc:Work
         rdf:about="">
        <dc:format>image/svg+xml</dc:format>
        <dc:type
           rdf:resource="http://purl.org/dc/dcmitype/StillImage" />
      </cc:Work>
    </rdf:RDF>
  </metadata>
  <defs
     id="defs16" />
  <sodipodi:namedview
     pagecolor="#ffffff"
     bordercolor="#666666"
     borderopacity="1"
     objecttolerance="10"
     gridtolerance="10"
     guidetolerance="10"
     inkscape:pageopacity="0"
     inkscape:pageshadow="2"
     inkscape:window-width="1070"
     inkscape:window-height="653"
     id="namedview14"
     showgrid="false"
     inkscape:zoom="10.727273"
     inkscape:cx="10.994165"
     inkscape:cy="10.99513"
     inkscape:window-x="70"
     inkscape:window-y="39"
     inkscape:window-maximized="0"
     inkscape:current-layer="svg2" />
  <circle
     cy="11"
     cx="11"
     r="10"
     fill="#7bbb36"
     id="circle4"
     style="fill:#5d5d5d;fill-opacity:1" />
  <path
     opacity=".2"
     d="m11 4.5c3.8662 0 7 3.1338 7 7s-3.1338 7-7 7-7-3.1338-7-7 3.1338-7 7-7zm0 2c-2.7615 0-5 2.2385-5 5s2.2385 5 5 5 5-2.2385 5-5-2.2385-5-5-5zm0 2 3 3-3 3 0.01172-2h-1.9648c-0.5793 0-1.0472-0.446-1.0472-1s0.46788-1 1.0469-1h1.9648z"
     fill-rule="evenodd"
     id="path6" />
  <path
     fill-rule="evenodd"
     fill="#fff"
     d="m11 4c3.8662 0 7 3.1338 7 7s-3.1338 7-7 7-7-3.134-7-7c0-3.8662 3.1338-7 7-7zm0 2c-2.7615 0-5 2.2385-5 5s2.2385 5 5 5 5-2.2385 5-5-2.2385-5-5-5zm0 2 3 3-3 3 0.01172-2h-1.9648c-0.5793 0-1.0472-0.446-1.0472-1s0.4679-1 1.0469-1h1.9648z"
     id="path8" />
  <path
     opacity=".2"
     d="m11 1a10 10 0 0 0 -10 10 10 10 0 0 0 0.0098 0.293 10 10 0 0 1 9.9902 -9.793 10 10 0 0 1 9.99 9.707 10 10 0 0 0 0.01 -0.207 10 10 0 0 0 -10 -10z"
     fill="#fff"
     id="path10" />
  <path
     opacity=".2"
     d="m20.99 11.207a10 10 0 0 1 -9.99 9.793 10 10 0 0 1 -9.9902 -9.707 10 10 0 0 0 -0.0098 0.207 10 10 0 0 0 10 10 10 10 0 0 0 10 -10 10 10 0 0 0 -0.0098 -0.29297z"
     id="path12" />
</svg>
